Title,Company,Place,Salary,Position
"

Front-end Engineer (HTML/ CSS/ JavaScript)_Đà Nẵng
",Công Ty TNHH IF Việt Nam , Đà Nẵng,Cạnh tranh , Nhân viên
"

Nhân Viên Thiết Kế Đồ Họa _ Đà Nẵng
",Công Ty TNHH IF Việt Nam , Đà Nẵng,Thương lượng , Nhân viên
"

IT MANAGER
",Công Ty CP Bất Động Sản LinkHouse Miền Trung , Đà Nẵng,Thương lượng , Quản lý / Trưởng phòng
"

DESIGNER 2D
",Công Ty CP Bất Động Sản LinkHouse Miền Trung , Đà Nẵng,Cạnh tranh , Nhân viên
"

CHUYÊN VIÊN THIẾT KẾ ĐỒ HỌA
",Công Ty CP Bất Động Sản LinkHouse Miền Trung , Đà Nẵng,"6,000,000VNĐ - 10,000,000VNĐ ", Nhân viên
"

NHÂN VIÊN IT
",CÔNG TY TNHH SẢN XUẤT , THƯƠNG MẠI BQ ,Thương lượng , Nhân viên
"

[Đà Nẵng] Nhân Viên Hỗ Trợ Kỹ Thuật ĐTDĐ/LAPTOP
",Công Ty Cổ Phần Bán Lẻ Kỹ Thuật Số FPT , Đà Nẵng,Cạnh tranh , Nhân viên
"

KỸ SƯ CÔNG NGHỆ THÔNG TIN
",TỔNG CÔNG TY CỔ PHẦN ĐẦU TƯ DHC , Đà Nẵng,Thương lượng , Nhân viên
"

BSE (Tiếng Nhật - Đà Nẵng)
",CareerLink’s Client , Đà Nẵng,Thương lượng , Nhân viên
"

Senior Java Developer
",Công Ty TNHH Asian Tech , Đà Nẵng,Thương lượng , Nhân viên
"

Communicator
",Công Ty TNHH Asian Tech , Đà Nẵng,Thương lượng , Nhân viên
"

Ruby Developer
",Công Ty TNHH Asian Tech , Đà Nẵng,Thương lượng , Nhân viên
"

C# Developer Team Leader (Tiếng Nhật - Đà Nẵng)
",CareerLink’s Client , Đà Nẵng,Thương lượng , Nhân viên
"

Technical Architect (IT - English speaking)
",CareerLink’s Client ," Đà Nẵng, Hồ Chí Minh",Thương lượng , Nhân viên
"

CHUYÊN VIÊN DIGITAL MARKETING  HỘI SỞ
",Công Ty CP Bất Động Sản LinkHouse Miền Trung , Đà Nẵng,Thương lượng , Nhân viên
"

PHP Developer
",Công Ty TNHH Asian Tech , Đà Nẵng,Thương lượng , Nhân viên
"

Chuyên Viên Thiết Kế Đồ Họa
",CÔNG TY CỔ PHẦN TÂM QUANG MINH , Đà Nẵng,Cạnh tranh , Nhân viên
"

Business Analyst
",Công Ty TNHH Asian Tech , Đà Nẵng,Thương lượng , Nhân viên
"

Java Technical Leader
",Công Ty TNHH Asian Tech , Đà Nẵng,Thương lượng , Trưởng nhóm / Giám sát
"

Android Developer
",Công Ty TNHH Asian Tech , Đà Nẵng,Thương lượng , Nhân viên
"

Project Manager
",Công Ty TNHH Asian Tech , Đà Nẵng,Thương lượng , Trưởng nhóm / Giám sát
"

CMS Development Team Leader
",CareerLink’s Client , Đà Nẵng,Thương lượng , Trưởng nhóm / Giám sát
"

Lập Trình Viên PHP (Hà Nội / Đà Nẵng)
",CareerLink’s Client ," Đà Nẵng, Hà Nội",Thương lượng , Nhân viên
"

[Đà Nẵng] Senior Game Designer
",Gameloft Vietnam , Đà Nẵng,Thương lượng , Nhân viên
"

02 NHÂN VIÊN IT
",CÔNG TY TNHH DAIWA VIỆT NAM , Đà Nẵng,"6,000,000VNĐ - 8,000,000VNĐ ", Nhân viên
"

iOS Master (Hà Nội/Đà Nẵng/Hồ Chí Minh)
",CareerLink’s Client ," Đà Nẵng, Hồ Chí Minh, Hà Nội","600USD - 1,500USD ", Nhân viên
"

[Hải Châu - Đà Nẵng] Nhân Viên Kỹ Thuật Sản Phẩm Hoặc Nhân Viên Sale Biết Về Kỹ Thuật (SL: 02 Người)
",Công Ty CP TM,DV Phong Vũ ,Cạnh tranh , Nhân viên
"

System Administrator
",Công Ty TNHH Asian Tech , Đà Nẵng,Thương lượng , Nhân viên
"

IT Project Leader (Đà Nẵng)
",CareerLink’s Client , Đà Nẵng,"1,000USD - 2,000USD ", Trưởng nhóm / Giám sát
"

Sales Executive
",LacViet Computing Corporation , Đà Nẵng,Cạnh tranh , Nhân viên
"

BSE Striker (Tiếng Nhật - Hà Nội/Đà Nẵng/HCM)
",CareerLink’s Client ," Đà Nẵng, Hồ Chí Minh, Hà Nội","900USD - 1,800USD ", Nhân viên
"

Senior PHP Developer
",CareerLink’s Client ," Đà Nẵng, Hà Nội",Thương lượng , Nhân viên
"

Lập Trình Viên Ruby on Rails
",CareerLink’s Client ," Đà Nẵng, Hà Nội","600USD - 1,500USD ", Nhân viên
"

[ Đà Nẵng ] Lập Trình Viên Game (Fresher - Sinh Viên Sắp Tốt Nghiệp)
",Gameloft Vietnam , Đà Nẵng,Thương lượng , Nhân viên
"

2D Artist ( Đà Nẵng )
",Gameloft Vietnam , Đà Nẵng,Thương lượng , Nhân viên
"

C++ Programmer ( Đà Nẵng )
",Gameloft Vietnam , Đà Nẵng,Thương lượng , Mới đi làm
"

[Da Nang] Project Manager (Game Producer)
",GAMELOFT VIETNAM , Đà Nẵng,Thương lượng , Quản lý / Trưởng phòng
"

BSE (N2- HCM)
",CareerLink’s Client ," Đà Nẵng, Hồ Chí Minh","1,500USD - 2,500USD ", Trưởng nhóm / Giám sát
"

PHP Technical Leader
",CareerLink’s Client ," Đà Nẵng, Hồ Chí Minh","1,000USD - 1,500USD ", Trưởng nhóm / Giám sát
"

NHÂN VIÊN IT
",Công Ty Cổ Phần Địa Ốc First Real , Đà Nẵng,Thương lượng , Nhân viên
"

Phó Phòng IT
",CÔNG TY CỔ PHẦN ĐẤT XANH MIỀN TRUNG , Đà Nẵng,Thương lượng , Quản lý / Trưởng phòng
